{
    "IsEncrypted": false,
    "Values": {
      "AzureWebJobsStorage": "DefaultEndpointsProtocol=https;AccountName=dbcamc01;AccountKey=4nKb7x7ykwNGxJoRozPIXnc2aZ5/I7ePX74uW2bGl9Bh2POQrqyAXsZaxkY98q5fv3icuxxhU4lpvnaszovBIw==;EndpointSuffix=core.windows.net",
      "FUNCTIONS_WORKER_RUNTIME": "node",
      "AZURE_STORAGE_ENDPOINT": "https://storageaccountdevamc.blob.core.windows.net",
      "AZURE_STORAGE_CONTAINER": "documents",
      "AZURE_STORAGE_CONNECTION": "DefaultEndpointsProtocol=https;AccountName=storageaccountdevamc;AccountKey=8q0Z2cUiMOzqpcMQTWreKwV3jI7ZMvK3YR1WNXERJyfuzyoPLrPJmCs1GplfFBwqvEF+uUJoE0M8yeRZ2m/UGQ==;EndpointSuffix=core.windows.net",
      "AZURE_EVENT_GRID_ENDPOINT": "https://dbc-amc-uat-web-form.australiaeast-1.eventgrid.azure.net/api/events",
      "AZURE_EVENT_GRID_SAS_KEY": "h7VQnQ++bMtS8QW2/SV2zGzUqbDAGQpWtcqqve+BxVk=",
      "AZURE_EVENT_GRID_TOPIC": "/subscriptions/780f9206-52e1-4f07-afa5-8783e9e851c3/resourceGroups/rg-dbc-amc-uat-001/providers/Microsoft.EventGrid/topics/dbc-amc-uat-web-form",                                     
      "AZURE_EVENT_GRID_ENDPOINT_NON_OCR": "https://dbc-amc-uat-web-form-no-contract.australiaeast-1.eventgrid.azure.net/api/events",
      "AZURE_EVENT_GRID_SAS_KEY_NON_OCR": "tHyGNEkqdFWIpB63/aCjQE2u4orL0P67mr4pBvB/Ht8=",
      "AZURE_EVENT_GRID_TOPIC_NON_OCR": "/subscriptions/780f9206-52e1-4f07-afa5-8783e9e851c3/resourceGroups/rg-dbc-amc-uat-001/providers/Microsoft.EventGrid/topics/dbc-amc-uat-web-form-no-contract",      
      "AZURE_CONTACTUPDATES_EVENT_GRID_ENDPOINT": "https://dbc-amc-uat-contractupdates.australiaeast-1.eventgrid.azure.net/api/events",
      "AZURE_CONTACTUPDATES_EVENT_GRID_SAS_KEY": "70wOJOkIZEpatRbhxCy1jYqM+M2RVRcCLFDP9muywA8=",
      "AZURE_CONTACTUPDATES_GRID_TOPIC": "/subscriptions/780f9206-52e1-4f07-afa5-8783e9e851c3/resourceGroups/rg-dbc-amc-uat-001/providers/Microsoft.EventGrid/topics/dbc-amc-uat-contractupdates",
      "dbcamccmdbdev01_DOCUMENTDB": "AccountEndpoint=https://dbcamccmdbdev01.documents.azure.com:443/;AccountKey=BcuDklS904VR0R9Ls00kOXsGAXvzvpZfFfP3oIfV3J9DupERfhSIHZILARQ1fBHWakD3Li51drLBN5KIFJ8LCQ==;",
      "LIVE_ACTIONSTEP_AUTH_HOST": "https://tools.thinkconveyancing.com.au",
      "LIVE_ACTIONSTEP_API_ENDPOINT": "https://ap-southeast-2.actionstep.com/api/rest",
      "ACTIONSTEP_AUTH_HOST":  "https://apidev2-staging.conveyancingapp.io/fast/refresh_token",    
      "ACTIONSTEP_API_ENDPOINT": "https://ap-southeast-2.actionstepstaging.com/api/rest",
      "TEAMS_WEBHOOK_ENDPOINT": "https://deepbluecompany.webhook.office.com/webhookb2",                               
      "OLDTEST_TEAMS_WEBHOOK_PATH": "4ed511a2-bfc9-4371-90b6-60a68d2b5ea2@20662f19-dcf5-43db-861d-23acdd8eeb44/IncomingWebhook/2308b91fa51d4ba69379194779ebf468/085fa7d7-c006-40b9-8e64-0cfb854f0211",
      "TEAMS_WEBHOOK_PATH": "1a66a4e9-62f5-4eeb-90c8-d9cb7af2fad3@20662f19-dcf5-43db-861d-23acdd8eeb44/IncomingWebhook/4c773f7ceffb4b9c8c030dee36ec3f37/085fa7d7-c006-40b9-8e64-0cfb854f0211",
      "TEAMS_AMC_ERROR_PATH": "4ed511a2-bfc9-4371-90b6-60a68d2b5ea2@20662f19-dcf5-43db-861d-23acdd8eeb44/IncomingWebhook/60839d4e83924a5b9f3bb07ee423ee5c/085fa7d7-c006-40b9-8e64-0cfb854f0211",
      "LIVE_TEAMS_PSCEM_SUCCESS_PATH": "d9b3e080-21e0-4f18-a04c-1706e54d35c8@20662f19-dcf5-43db-861d-23acdd8eeb44/IncomingWebhook/a2601d2373b94ad381d67dcc742468fc/085fa7d7-c006-40b9-8e64-0cfb854f0211",
      "TEAMS_PSCEM_SUCCESS_PATH": "1a66a4e9-62f5-4eeb-90c8-d9cb7af2fad3@20662f19-dcf5-43db-861d-23acdd8eeb44/IncomingWebhook/4c773f7ceffb4b9c8c030dee36ec3f37/085fa7d7-c006-40b9-8e64-0cfb854f0211",
      "TEAMS_PSCEM_ERROR_PATH": "4ed511a2-bfc9-4371-90b6-60a68d2b5ea2@20662f19-dcf5-43db-861d-23acdd8eeb44/IncomingWebhook/b9dd5bd4944d42a49bb4650ec25c370a/085fa7d7-c006-40b9-8e64-0cfb854f0211",
      "DEV_TESTING_ENV" : "disable",
      "PIPEDRIVE_API_ENDPOINT": "https://api.pipedrive.com",
      "PIPEDRIVE_API_TOKEN": "26080911ea69bce914ad1fead930770c2feaa495",
      "DATALAKE_API_ENDPOINT": "https://api-staging.deepbluecompany.com.au",
      "DATALAKE_API_PATH": "data/update-matter-id",
      "DATALAKE_API_KEY": "zX5t3-1BC4et1-ert30",
      "AMC_DB_ENDPOINT": "dbc-pi-postgresql-01.postgres.database.azure.com",
      "AMC_DB_USER": "amcdevelopment@dbc-pi-postgresql-01",
      "AMC_DB_PASSWORD": "FkPvf5o8pJLs",
      "BAK_AMC_DB_ENDPOINT": "postgres-staging.crxdanqzoljb.ap-southeast-2.rds.amazonaws.com",
      "BAK_AMC_DB_USER": "postgres_staging",
      "BAK_AMC_DB_PASSWORD": "vNmmnvIRtjX9NTWITVdb",
      "AMC_DB_NAME": "amc_forms_uat",
      "AMC_LABEL" : "397",
      "STMT_CALCU_DATABASE" : "apps_staging",
      "STMT_CALCU_HOST" : "staging.crxdanqzoljb.ap-southeast-2.rds.amazonaws.com",
      "STMT_CALCU_PASSWORD" : "jRYF1aM244teDrqBQpVq",
      "STMT_CALCU_USERNAME" : "admin_staging",
      "AzureWebJobs.CosmosDBEventTrigger.Disabled": "true",
      "AzureWebJobs.EventGridHook.Disabled": "true",
      "dbcamcasbdev01_SERVICEBUS"   : "Endpoint=sb://dbc-amc-asb-dev-01.servicebus.windows.net/;SharedAccessKeyName=RootManageSharedAccessKey;SharedAccessKey=fDbWRqL8ap4FHNIxJg2AHVLIDD/PW3OYRoN5qfN9tSg=",
      "AZURE_SERVICEBUS_CONNECTION" : "Endpoint=sb://dbc-amc-asb-dev-01.servicebus.windows.net/;SharedAccessKeyName=RootManageSharedAccessKey;SharedAccessKey=fDbWRqL8ap4FHNIxJg2AHVLIDD/PW3OYRoN5qfN9tSg=",
      "DEFAULT_LAWYERS" : "eyJRTEQiOjE5NDg2LCJXQSI6MTk0ODYsIk5TVyI6MTk0ODYsIlZJQyI6MTA3NjAxLCJUQVMiOjc2NzU4LCJTQSI6MzgyN30=",    
      "DEFAULT_PRACTITIONERS" : "W3sicyI6IlFMRCIsInYiOiJDRyJ9LHsicyI6IkFDVCIsInYiOiJDRyJ9LHsicyI6IldBIiwidiI6IkNHIn0seyJzIjoiVklDIiwidiI6IktMIn0seyJzIjoiTlNXIiwidiI6IkNHIn0seyJzIjoiVEFTIiwidiI6IkVCIn0seyJzIjoiU0EiLCJ2IjoiSkIifV0=",
      "AzureWebJobs.SBTriggerToPipedrive.Disabled": "true",
      "AzureWebJobs.TimeEvent.Disabled": "true",
      "DETECT_DUPLICATE_MSG" : "activated"
    }
  }
  